@startuml
hide empty members
hide circle
interface Volador
abstract Animal
abstract Vehicle
abstract Ocell
Animal <|-- Ocell
Vehicle <|-- Avio
Ocell ..|> Volador
Avio ..|> Volador
Ocell <|- Oreneta
@enduml

@startuml
hide circle
interface Interficie
ClasseDerivada : metode()
ClasseBase : metode()
Interficie : metode()
ClasseBase <|-- ClasseDerivada
Interficie <|.. ClasseDerivada
@enduml

@startuml
hide circle
hide empty members
skinparam classAttributeIconSize 0
abstract Animal
Zoo*-Animal
Zoo : +alimenta(a : Animal)
Animal <|-- Elefant
Animal <|-- Camell
Animal <|-- Serp
@enduml

@startuml
hide circle
hide empty members
skinparam classAttributeIconSize 0
Estudiant -|> Persona
@enduml

@startuml
hide circle
hide empty members
skinparam classAttributeIconSize 0
abstract Vehicle
Vehicle : +accelera()
Bicicleta : +accelera()
Vehicle <|-- Cotxe
Vehicle <|-- Bicicleta
@enduml
